module alerting

go 1.21.4

require (
	github.com/BurntSushi/toml v1.2.1 // indirect
	github.com/apsdehal/go-logger v0.0.0-20190515212710-b0d6ccfee0e6 // indirect
	github.com/go-telegram-bot-api/telegram-bot-api/v5 v5.5.1 // indirect
	github.com/goccy/go-json v0.10.2 // indirect
	github.com/ilyakaznacheev/cleanenv v1.5.0 // indirect
	github.com/joho/godotenv v1.5.1 // indirect
	github.com/klauspost/compress v1.17.2 // indirect
	github.com/nats-io/nats.go v1.34.1 // indirect
	github.com/nats-io/nkeys v0.4.7 // indirect
	github.com/nats-io/nuid v1.0.1 // indirect
	golang.org/x/crypto v0.18.0 // indirect
	golang.org/x/sys v0.16.0 // indirect
	gopkg.in/yaml.v3 v3.0.1 // indirect
	olympos.io/encoding/edn v0.0.0-20201019073823-d3554ca0b0a3 // indirect
)
